(footprint "CUI_PJ-002BH-SMT-TR" (version 20221018) (generator pcbnew)
  (layer "F.Cu")
  (attr smd)
  (fp_text reference "REF**" (at -8.06935 -2.82002) (layer "F.SilkS")
      (effects (font (size 1.00178 1.00178) (thickness 0.15)))
    (tstamp b81bdedf-01be-440f-b288-2c556ab48335)
  )
  (fp_text value "CUI_PJ-002BH-SMT-TR" (at 0.605755 14.301755) (layer "F.Fab")
      (effects (font (size 1.001173 1.001173) (thickness 0.15)))
    (tstamp 9822ed09-2316-4aac-a780-3e00ad647645)
  )
  (fp_line (start -11.1 1.2) (end -11.1 10.2)
    (stroke (width 0.127) (type solid)) (layer "F.SilkS") (tstamp 7edf5257-c789-4f66-a2b3-708bc3efbc39))
  (fp_line (start -11.1 10.2) (end -7.7 10.2)
    (stroke (width 0.127) (type solid)) (layer "F.SilkS") (tstamp 1128cc77-b286-47a7-bbc1-efa32fe84558))
  (fp_line (start -7.7 1.2) (end -11.1 1.2)
    (stroke (width 0.127) (type solid)) (layer "F.SilkS") (tstamp e6e12ada-0e50-45de-86ff-58fb803e849e))
  (fp_line (start -4.5 10.2) (end -1.6 10.2)
    (stroke (width 0.127) (type solid)) (layer "F.SilkS") (tstamp faa9464b-183d-45b3-aa04-f4e1ebf6a040))
  (fp_line (start -1.6 1.2) (end -4.5 1.2)
    (stroke (width 0.127) (type solid)) (layer "F.SilkS") (tstamp 73bb8b7c-0227-4730-8012-da87b7c2c649))
  (fp_line (start 1.6 10.2) (end 3.7 10.2)
    (stroke (width 0.127) (type solid)) (layer "F.SilkS") (tstamp a0beb2d8-b504-4110-8f93-928514077485))
  (fp_line (start 2.65 1.2) (end 1.6 1.2)
    (stroke (width 0.127) (type solid)) (layer "F.SilkS") (tstamp 209a86e1-d66d-415f-bffe-745aff55126e))
  (fp_line (start 2.65 3.55) (end 2.65 1.2)
    (stroke (width 0.127) (type solid)) (layer "F.SilkS") (tstamp 9032d319-9477-405f-a977-5802710c8d36))
  (fp_line (start 3.15 3.55) (end 2.65 3.55)
    (stroke (width 0.127) (type solid)) (layer "F.SilkS") (tstamp bd0aac61-e21e-458b-b996-7edef638d61e))
  (fp_line (start 3.15 7) (end 3.15 3.55)
    (stroke (width 0.127) (type solid)) (layer "F.SilkS") (tstamp 66c24017-8427-49fb-8bd5-40413dc37b7f))
  (fp_line (start 3.7 7) (end 3.15 7)
    (stroke (width 0.127) (type solid)) (layer "F.SilkS") (tstamp f54ea70d-6403-47f4-8975-358ad360353a))
  (fp_line (start 3.7 10.2) (end 3.7 7)
    (stroke (width 0.127) (type solid)) (layer "F.SilkS") (tstamp 63de78af-7ab6-45ea-af57-4f58322b1c35))
  (fp_circle (center 0 -1.99) (end 0.2 -1.99)
    (stroke (width 0.4) (type solid)) (fill none) (layer "F.SilkS") (tstamp c28efff0-dd6f-4a0a-80aa-97c22c0d84e9))
  (fp_line (start -11.35 0.95) (end -7.75 0.95)
    (stroke (width 0.05) (type solid)) (layer "F.CrtYd") (tstamp f9581a0a-a0ae-4067-96ab-21c9c41062c3))
  (fp_line (start -11.35 10.45) (end -11.35 0.95)
    (stroke (width 0.05) (type solid)) (layer "F.CrtYd") (tstamp 3b3d7b2e-b898-44ae-aebd-f89868cbed5c))
  (fp_line (start -7.75 -1.45) (end -4.45 -1.45)
    (stroke (width 0.05) (type solid)) (layer "F.CrtYd") (tstamp d0c28ce8-b1cc-4119-98bf-e4307997759c))
  (fp_line (start -7.75 0.95) (end -7.75 -1.45)
    (stroke (width 0.05) (type solid)) (layer "F.CrtYd") (tstamp a0d679d1-f918-49bb-9f07-587d2da9d297))
  (fp_line (start -7.75 10.45) (end -11.35 10.45)
    (stroke (width 0.05) (type solid)) (layer "F.CrtYd") (tstamp 6e83069a-fa38-41fc-bfdb-31c1bc76a3b3))
  (fp_line (start -7.75 12.85) (end -7.75 10.45)
    (stroke (width 0.05) (type solid)) (layer "F.CrtYd") (tstamp 2698d045-4272-4de6-a76b-819ed4349dec))
  (fp_line (start -4.45 -1.45) (end -4.45 0.95)
    (stroke (width 0.05) (type solid)) (layer "F.CrtYd") (tstamp d498bbe5-a1f5-4e4b-9db9-f2630b74a87c))
  (fp_line (start -4.45 0.95) (end -1.65 0.95)
    (stroke (width 0.05) (type solid)) (layer "F.CrtYd") (tstamp 1191ce27-23b5-4290-86d0-992574f06ef2))
  (fp_line (start -4.45 10.45) (end -4.45 12.85)
    (stroke (width 0.05) (type solid)) (layer "F.CrtYd") (tstamp d1431fc5-5557-4d22-abc0-77ea1f822978))
  (fp_line (start -4.45 12.85) (end -7.75 12.85)
    (stroke (width 0.05) (type solid)) (layer "F.CrtYd") (tstamp 37c81481-e749-4ab2-bedd-5c1a1f1bf5a1))
  (fp_line (start -1.65 -1.45) (end 1.65 -1.45)
    (stroke (width 0.05) (type solid)) (layer "F.CrtYd") (tstamp 4dd0ea23-280b-41a2-89a1-311b44d7adab))
  (fp_line (start -1.65 0.95) (end -1.65 -1.45)
    (stroke (width 0.05) (type solid)) (layer "F.CrtYd") (tstamp 3e90bd83-12dc-4a34-8160-76ace65e884e))
  (fp_line (start -1.65 10.45) (end -4.45 10.45)
    (stroke (width 0.05) (type solid)) (layer "F.CrtYd") (tstamp 37579563-993f-42b1-969a-1bee3c159300))
  (fp_line (start -1.65 12.85) (end -1.65 10.45)
    (stroke (width 0.05) (type solid)) (layer "F.CrtYd") (tstamp 226fc0fb-2308-4d6e-8e9c-ebba6f652243))
  (fp_line (start 1.65 -1.45) (end 1.65 0.95)
    (stroke (width 0.05) (type solid)) (layer "F.CrtYd") (tstamp c6f78e0a-946f-4137-9393-6187f9ca520a))
  (fp_line (start 1.65 0.95) (end 3.95 0.95)
    (stroke (width 0.05) (type solid)) (layer "F.CrtYd") (tstamp 33de2294-c0a9-43b7-9d4f-8acff2d08b76))
  (fp_line (start 1.65 10.45) (end 1.65 12.85)
    (stroke (width 0.05) (type solid)) (layer "F.CrtYd") (tstamp 6ed2674c-e077-4b86-817c-9ac69e2cdcf0))
  (fp_line (start 1.65 12.85) (end -1.65 12.85)
    (stroke (width 0.05) (type solid)) (layer "F.CrtYd") (tstamp 0d876e2f-e880-4e8e-9fe9-25ab687e4d1e))
  (fp_line (start 3.95 0.95) (end 3.95 10.45)
    (stroke (width 0.05) (type solid)) (layer "F.CrtYd") (tstamp 51262aea-abc8-4501-9d1d-96aeb7e145a8))
  (fp_line (start 3.95 10.45) (end 1.65 10.45)
    (stroke (width 0.05) (type solid)) (layer "F.CrtYd") (tstamp dac5ee21-f76a-4ac5-8b9b-a4ad8703420d))
  (fp_line (start -11.1 1.2) (end -11.1 10.2)
    (stroke (width 0.127) (type solid)) (layer "F.Fab") (tstamp c32475a3-85a4-4af5-b8c8-b0a2cb4a4389))
  (fp_line (start -11.1 10.2) (end 3.7 10.2)
    (stroke (width 0.127) (type solid)) (layer "F.Fab") (tstamp 2905d8e2-3644-485f-a90d-c3d0f1446591))
  (fp_line (start 3.7 1.2) (end -11.1 1.2)
    (stroke (width 0.127) (type solid)) (layer "F.Fab") (tstamp 58bc4bc5-646a-4116-812f-ef6f7f934be2))
  (fp_line (start 3.7 10.2) (end 3.7 1.2)
    (stroke (width 0.127) (type solid)) (layer "F.Fab") (tstamp e01593cc-2295-4483-aad4-01199f258acf))
  (pad "" np_thru_hole circle (at -6.1 5.7) (size 1.7 1.7) (drill 1.7) (layers "*.Cu" "*.Mask") (tstamp 03869432-ac57-44da-b618-06aad2e694c8))
  (pad "" np_thru_hole circle (at -1.6 5.7) (size 1.8 1.8) (drill 1.8) (layers "*.Cu" "*.Mask") (tstamp 01f203b8-8ae0-401c-86fc-4bc2270b4111))
  (pad "1A" smd rect (at 0 0) (size 2.8 2.4) (layers "F.Cu" "F.Paste" "F.Mask") (tstamp 35f2bafa-4470-4c29-bb08-93e27ba49268))
  (pad "1B" smd rect (at -6.1 0) (size 2.8 2.4) (layers "F.Cu" "F.Paste" "F.Mask") (tstamp f04c3225-964b-4aaa-82f9-77f7fb842745))
  (pad "2" smd rect (at -6.1 11.4) (size 2.8 2.4) (layers "F.Cu" "F.Paste" "F.Mask") (tstamp 32fa9382-57d4-48f0-bd8c-2b489f816b1f))
  (pad "3" smd rect (at 0 11.4) (size 2.8 2.4) (layers "F.Cu" "F.Paste" "F.Mask") (tstamp 05eaa96e-f88c-440e-a43a-90a55fa56bab))
)
