(footprint "mouse-bite-1mm-slot" (version 20221018) (generator pcbnew)
  (layer "F.Cu")
  (attr through_hole)
  (fp_text reference "mouse-bite-1mm-slot" (at 0 -2) (layer "F.SilkS") hide
      (effects (font (size 1 1) (thickness 0.2)))
    (tstamp 5b381667-824a-4fa4-ad1d-ed9bea92f13d)
  )
  (fp_text value "VAL**" (at 0 2.1) (layer "F.SilkS") hide
      (effects (font (size 1 1) (thickness 0.2)))
    (tstamp e9889830-fff4-4002-91eb-0a7505edbd39)
  )
  (fp_arc (start -1.5 -0.5) (mid -1 0) (end -1.5 0.5)
    (stroke (width 0.1) (type solid)) (layer "F.SilkS") (tstamp 4c2d90b1-43c5-4669-9174-7dcc2f4af1f1))
  (fp_arc (start 1.5 0.5) (mid 1 0) (end 1.5 -0.5)
    (stroke (width 0.1) (type solid)) (layer "F.SilkS") (tstamp ae86c4f2-41a5-4748-a614-2440c4b17b89))
  (fp_circle (center -1.5 0) (end -1.44 0)
    (stroke (width 0.05) (type solid)) (fill none) (layer "Dwgs.User") (tstamp 277558d2-ebbc-484c-a361-1e2d60fc11cd))
  (fp_circle (center 1.5 0) (end 1.56 0)
    (stroke (width 0.05) (type solid)) (fill none) (layer "Dwgs.User") (tstamp 457c92be-7f34-43c2-8ae6-1b385da0d381))
  (fp_line (start -1.5 0) (end -1.5 0)
    (stroke (width 1) (type solid)) (layer "Eco1.User") (tstamp 2ce99397-eaf7-4f93-b941-b436fffd6f04))
  (fp_line (start 1.5 0) (end 1.5 0)
    (stroke (width 1) (type solid)) (layer "Eco1.User") (tstamp 7b90f2a0-2d9f-48f8-baea-7284e1970f79))
  (pad "" np_thru_hole circle (at -1.15 -0.75) (size 0.5 0.5) (drill 0.5) (layers "*.Cu" "*.Mask") (tstamp 9ca9f33e-96ed-44c3-bbe3-923a73998f0b))
  (pad "" np_thru_hole circle (at -1.15 0.75) (size 0.5 0.5) (drill 0.5) (layers "*.Cu" "*.Mask") (tstamp 80138847-451d-41ca-977b-57b2b8071694))
  (pad "" np_thru_hole circle (at -0.35 -1) (size 0.5 0.5) (drill 0.5) (layers "*.Cu" "*.Mask") (tstamp 96dd8c6f-87ea-4481-9bbf-fa1e6c4d3083))
  (pad "" np_thru_hole circle (at -0.35 1) (size 0.5 0.5) (drill 0.5) (layers "*.Cu" "*.Mask") (tstamp 12cec4bf-87c3-4da8-b710-2198ca7543b2))
  (pad "" np_thru_hole circle (at 0.35 -1) (size 0.5 0.5) (drill 0.5) (layers "*.Cu" "*.Mask") (tstamp 8d0b2f80-53e6-49ce-866f-ddc2ca3accfd))
  (pad "" np_thru_hole circle (at 0.35 1) (size 0.5 0.5) (drill 0.5) (layers "*.Cu" "*.Mask") (tstamp 0b64c0de-12fa-4d7a-9193-59f6664f757f))
  (pad "" np_thru_hole circle (at 1.15 -0.75) (size 0.5 0.5) (drill 0.5) (layers "*.Cu" "*.Mask") (tstamp df8dafec-ba6f-4e7d-85a3-14a860f39d6a))
  (pad "" np_thru_hole circle (at 1.15 0.75) (size 0.5 0.5) (drill 0.5) (layers "*.Cu" "*.Mask") (tstamp 00b720b0-c1aa-4e3e-85f5-962590ebc20b))
)
