(footprint "mouse-bite-2mm-slot" (version 20221018) (generator pcbnew)
  (layer "F.Cu")
  (attr through_hole)
  (fp_text reference "mouse-bite-2mm-slot" (at 0 -2) (layer "F.SilkS") hide
      (effects (font (size 1 1) (thickness 0.2)))
    (tstamp 63a080af-453b-465f-b614-6f4346444251)
  )
  (fp_text value "VAL**" (at 0 2.1) (layer "F.SilkS") hide
      (effects (font (size 1 1) (thickness 0.2)))
    (tstamp bb198573-04b7-4921-bf08-4a16c0b2b44a)
  )
  (fp_arc (start -2 -1) (mid -1 0) (end -2 1)
    (stroke (width 0.1) (type solid)) (layer "F.SilkS") (tstamp b658bd09-a6c6-456d-92fb-b03a7a5df870))
  (fp_arc (start 2 1) (mid 1 0) (end 2 -1)
    (stroke (width 0.1) (type solid)) (layer "F.SilkS") (tstamp a25e6d90-5840-4293-af2b-ae03e567aff8))
  (fp_circle (center -2 0) (end -2 -0.06)
    (stroke (width 0.05) (type solid)) (fill none) (layer "Dwgs.User") (tstamp 913c81b4-bf19-4f70-9932-bc167e05ee2e))
  (fp_circle (center 2 0) (end 2.06 0)
    (stroke (width 0.05) (type solid)) (fill none) (layer "Dwgs.User") (tstamp 3a1b17fb-2695-49cf-9d2b-691dfcd48b66))
  (fp_line (start -2 0) (end -2 0)
    (stroke (width 2) (type solid)) (layer "Eco1.User") (tstamp a7e83f88-fef2-415a-a2b1-d280fba3d244))
  (fp_line (start 2 0) (end 2 0)
    (stroke (width 2) (type solid)) (layer "Eco1.User") (tstamp edf80b96-e2bb-4dd4-8585-6585cdd24f77))
  (pad "" np_thru_hole circle (at -0.75 -0.75) (size 0.5 0.5) (drill 0.5) (layers "*.Cu" "*.Mask") (tstamp 13a5a49b-6657-432c-a7c7-e758b0cebaf7))
  (pad "" np_thru_hole circle (at -0.75 0.75) (size 0.5 0.5) (drill 0.5) (layers "*.Cu" "*.Mask") (tstamp 0d57f748-0df9-4bc2-b10c-d11d99bac178))
  (pad "" np_thru_hole circle (at 0 -0.75) (size 0.5 0.5) (drill 0.5) (layers "*.Cu" "*.Mask") (tstamp c2ef7aa0-4d95-4b30-a729-5dfa58eb768d))
  (pad "" np_thru_hole circle (at 0 0.75) (size 0.5 0.5) (drill 0.5) (layers "*.Cu" "*.Mask") (tstamp 220f63f6-df7e-41f2-846f-4e5dd66fb965))
  (pad "" np_thru_hole circle (at 0.75 -0.75) (size 0.5 0.5) (drill 0.5) (layers "*.Cu" "*.Mask") (tstamp 3ef35653-9141-4202-95fb-b98a99005196))
  (pad "" np_thru_hole circle (at 0.75 0.75) (size 0.5 0.5) (drill 0.5) (layers "*.Cu" "*.Mask") (tstamp 31e82620-f41a-41dd-8ee6-6b67b653e07f))
)
