(footprint "SW_TS04-66-85-BK-160-SMT" (version 20221018) (generator pcbnew)
  (layer "F.Cu")
  (attr smd)
  (fp_text reference "REF**" (at -2.675 -4.385) (layer "F.SilkS")
      (effects (font (size 1 1) (thickness 0.15)))
    (tstamp b8d15ced-d37d-4ac0-93f0-17d49e619124)
  )
  (fp_text value "SW_TS04-66-85-BK-160-SMT" (at 9.39 4.385) (layer "F.Fab")
      (effects (font (size 1 1) (thickness 0.15)))
    (tstamp 21b7db6d-b99e-4eec-a9a6-abb47234fe71)
  )
  (fp_line (start -3 -3) (end -3 3)
    (stroke (width 0.127) (type solid)) (layer "F.SilkS") (tstamp f9b12696-a0a5-40cd-b481-558d44e62a1a))
  (fp_line (start -3 3) (end 3 3)
    (stroke (width 0.127) (type solid)) (layer "F.SilkS") (tstamp 9b7cac0a-d0ec-4fa1-b342-f509ec8000c4))
  (fp_line (start 3 -3) (end -3 -3)
    (stroke (width 0.127) (type solid)) (layer "F.SilkS") (tstamp 268d4be4-df25-49a2-850b-01266d1666d1))
  (fp_line (start 3 3) (end 3 -3)
    (stroke (width 0.127) (type solid)) (layer "F.SilkS") (tstamp 5cfb1146-110e-40fd-8869-210e8f037c8b))
  (fp_circle (center -6.25 -2.25) (end -6.15 -2.25)
    (stroke (width 0.2) (type solid)) (fill none) (layer "F.SilkS") (tstamp 147d611b-1038-4bef-b1fe-5315bfb8f908))
  (fp_line (start -5.85 -3.25) (end -5.85 3.25)
    (stroke (width 0.05) (type solid)) (layer "F.CrtYd") (tstamp 71d9ed48-721b-4be4-842e-97b1e025e313))
  (fp_line (start -5.85 3.25) (end 5.85 3.25)
    (stroke (width 0.05) (type solid)) (layer "F.CrtYd") (tstamp a62ffc0e-c53d-41d5-9746-ebe15fe361c8))
  (fp_line (start 5.85 -3.25) (end -5.85 -3.25)
    (stroke (width 0.05) (type solid)) (layer "F.CrtYd") (tstamp a05472ff-31af-480f-a9a1-7bddabcf36f5))
  (fp_line (start 5.85 3.25) (end 5.85 -3.25)
    (stroke (width 0.05) (type solid)) (layer "F.CrtYd") (tstamp a12dd822-c39c-4732-8435-b180f7285995))
  (fp_line (start -3 -3) (end -3 3)
    (stroke (width 0.127) (type solid)) (layer "F.Fab") (tstamp 5b3f2ebb-cae1-443f-843d-4099d6576148))
  (fp_line (start -3 3) (end 3 3)
    (stroke (width 0.127) (type solid)) (layer "F.Fab") (tstamp 4e3360a5-2e85-4c09-a610-2ee25d7ea358))
  (fp_line (start 3 -3) (end -3 -3)
    (stroke (width 0.127) (type solid)) (layer "F.Fab") (tstamp 91999e2a-e469-422c-84ad-5dbffdafa1fb))
  (fp_line (start 3 3) (end 3 -3)
    (stroke (width 0.127) (type solid)) (layer "F.Fab") (tstamp 140a35c8-c42e-4bd2-8b9f-d8b10d31a2e0))
  (fp_circle (center -6.25 -2.25) (end -6.15 -2.25)
    (stroke (width 0.2) (type solid)) (fill none) (layer "F.Fab") (tstamp 0a26a9f1-ec74-4f15-8b08-c922cd578425))
  (pad "1" smd rect (at -4.55 -2.25) (size 2.1 1.4) (layers "F.Cu" "F.Paste" "F.Mask") (tstamp 6f11e5e9-ed2a-43a5-86c8-b2207d32155f))
  (pad "2" smd rect (at -4.55 2.25) (size 2.1 1.4) (layers "F.Cu" "F.Paste" "F.Mask") (tstamp cfe3c052-49c6-416f-8d0c-1e372b4ac338))
  (pad "3" smd rect (at 4.55 -2.25) (size 2.1 1.4) (layers "F.Cu" "F.Paste" "F.Mask") (tstamp 4204cb78-c55f-465d-a131-42b3bee28db8))
  (pad "4" smd rect (at 4.55 2.25) (size 2.1 1.4) (layers "F.Cu" "F.Paste" "F.Mask") (tstamp 1a9f1bb1-7eaa-4a72-ad16-6791185c2914))
)
