
(kicad_symbol_lib (version 20211014) (generator kicad_symbol_editor)
  (symbol "ABM3-16.000MHZ-D2Y-T" (pin_names (offset 1.016)) (in_bom yes) (on_board yes)
    (property "Reference" "Y" (id 0) (at -5.0878 3.81585 0)
      (effects (font (size 1.27 1.27)) (justify bottom left))
    )
    (property "Value" "ABM3-16.000MHZ-D2Y-T" (id 1) (at -5.09439 -5.09439 0)
      (effects (font (size 1.27 1.27)) (justify bottom left))
    )
    (property "Footprint" "XTAL_ABM3-16.000MHZ-D2Y-T" (id 2) (at 0 0 0)
      (effects (font (size 1.27 1.27)) (justify bottom) hide)
    )
    (property "PARTREV" "4/25/2022" (id 4) (at 0 0 0)
      (effects (font (size 1.27 1.27)) (justify bottom) hide)
    )
    (property "STANDARD" "Manufacturer Recommendations" (id 5) (at 0 0 0)
      (effects (font (size 1.27 1.27)) (justify bottom) hide)
    )
    (property "MAXIMUM_PACKAGE_HEIGHT" "1.3 mm" (id 6) (at 0 0 0)
      (effects (font (size 1.27 1.27)) (justify bottom) hide)
    )
    (property "MANUFACTURER" "Abracon" (id 7) (at 0 0 0)
      (effects (font (size 1.27 1.27)) (justify bottom) hide)
    )
    (symbol "ABM3-16.000MHZ-D2Y-T_0_0"
      (polyline
        (pts (xy -1.397 2.54) (xy 1.397 2.54)) (stroke (width 0.4064))
      )
      (polyline
        (pts (xy 1.397 2.54) (xy 1.397 -2.54)) (stroke (width 0.4064))
      )
      (polyline
        (pts (xy 1.397 -2.54) (xy -1.397 -2.54)) (stroke (width 0.4064))
      )
      (polyline
        (pts (xy -1.397 2.54) (xy -1.397 -2.54)) (stroke (width 0.4064))
      )
      (polyline
        (pts (xy 2.3368 2.54) (xy 2.3368 -2.54)) (stroke (width 0.4064))
      )
      (polyline
        (pts (xy -2.3368 2.54) (xy -2.3368 -2.54)) (stroke (width 0.4064))
      )
      (pin passive line (at 5.08 0.0 180.0) (length 2.54)
        (name "~"
          (effects (font (size 1.016 1.016)))
        )
        (number "2"
          (effects (font (size 1.016 1.016)))
        )
      )
      (pin passive line (at -5.08 0.0 0) (length 2.54)
        (name "~"
          (effects (font (size 1.016 1.016)))
        )
        (number "1"
          (effects (font (size 1.016 1.016)))
        )
      )
    )
  )
)
