(kicad_symbol_lib (version 20220914) (generator kicad_symbol_editor)
  (symbol "R_Potentiometer_Small" (pin_names (offset 1.016) hide) (in_bom yes) (on_board yes)
    (property "Reference" "RV1" (at -1.524 1.024 0)
      (effects (font (size 1.27 1.27)) (justify right))
    )
    (property "Value" "10k Log" (at -1.524 -1.024 0)
      (effects (font (size 1.27 1.27)) (justify right))
    )
    (property "Footprint" "BJ-Keyer:Potentiometer_Alps_RK09K_Single_Horizontal" (at 0 0 0)
      (effects (font (size 1.27 1.27)) hide)
    )
    (property "Datasheet" "~" (at 0 0 0)
      (effects (font (size 1.27 1.27)) hide)
    )
    (property "ki_keywords" "resistor variable" (at 0 0 0)
      (effects (font (size 1.27 1.27)) hide)
    )
    (property "ki_description" "Potentiometer" (at 0 0 0)
      (effects (font (size 1.27 1.27)) hide)
    )
    (property "ki_fp_filters" "Potentiometer*" (at 0 0 0)
      (effects (font (size 1.27 1.27)) hide)
    )
    (symbol "R_Potentiometer_Small_0_1"
      (polyline
        (pts
          (xy 0.889 0)
          (xy 0.635 0)
          (xy 1.651 0.381)
          (xy 1.651 -0.381)
          (xy 0.635 0)
          (xy 0.889 0)
        )
        (stroke (width 0) (type default))
        (fill (type outline))
      )
      (rectangle (start 0.762 1.8034) (end -0.762 -1.8034)
        (stroke (width 0.254) (type default))
        (fill (type none))
      )
    )
    (symbol "R_Potentiometer_Small_1_1"
      (pin no_connect line (at 3.302 -1.651 180) (length 2.54) hide
        (name "MP" (effects (font (size 1.27 1.27))))
        (number "" (effects (font (size 1.27 1.27))))
      )
      (pin passive line (at 0 2.54 270) (length 0.635)
        (name "1" (effects (font (size 0.635 0.635))))
        (number "1" (effects (font (size 0.635 0.635))))
      )
      (pin passive line (at 2.54 0 180) (length 0.9906)
        (name "2" (effects (font (size 0.635 0.635))))
        (number "2" (effects (font (size 0.635 0.635))))
      )
      (pin passive line (at 0 -2.54 90) (length 0.635)
        (name "3" (effects (font (size 0.635 0.635))))
        (number "3" (effects (font (size 0.635 0.635))))
      )
    )
  )
)
