\babel@toc {ngerman}{}
\addvspace {10\p@ }
\addvspace {10\p@ }
\addvspace {10\p@ }
\contentsline {figure}{\numberline {3.1}{\ignorespaces Diagramm Iambic Mode A\relax }}{9}{figure.caption.4}%
\contentsline {figure}{\numberline {3.2}{\ignorespaces Diagramm Iambic Mode B\relax }}{10}{figure.caption.5}%
\contentsline {figure}{\numberline {3.3}{\ignorespaces Diagramm Ultimatic Mode\relax }}{11}{figure.caption.6}%
\contentsline {figure}{\numberline {3.4}{\ignorespaces Diagramm Gewichtung\relax }}{11}{figure.caption.7}%
\contentsline {figure}{\numberline {3.5}{\ignorespaces Diagramm Punkt/Strich Ratio\relax }}{12}{figure.caption.8}%
\contentsline {figure}{\numberline {3.6}{\ignorespaces Diagramm Punkt/Strich Speicher abgeschaltet\relax }}{12}{figure.caption.9}%
\contentsline {figure}{\numberline {3.7}{\ignorespaces Diagramm Punkt/Strich Speicher eingeschaltet\relax }}{13}{figure.caption.10}%
\addvspace {10\p@ }
\addvspace {10\p@ }
\contentsline {figure}{\numberline {5.1}{\ignorespaces Schaltung Spannungsversorgung\relax }}{19}{figure.caption.11}%
\contentsline {figure}{\numberline {5.2}{\ignorespaces Schaltung Mikrocontroller\relax }}{20}{figure.caption.12}%
\contentsline {figure}{\numberline {5.3}{\ignorespaces Schaltung USB\relax }}{21}{figure.caption.13}%
\contentsline {figure}{\numberline {5.4}{\ignorespaces Schaltung ClassD Verstärker\relax }}{22}{figure.caption.14}%
\contentsline {figure}{\numberline {5.5}{\ignorespaces Schaltung Cauer Filter\relax }}{22}{figure.caption.15}%
\addvspace {10\p@ }
\contentsline {figure}{\numberline {6.1}{\ignorespaces Pulswellenmodulation\relax }}{24}{figure.caption.16}%
\contentsline {figure}{\numberline {6.2}{\ignorespaces Symmetrisches Rechtecksignal an PB3\relax }}{25}{figure.caption.19}%
\contentsline {figure}{\numberline {6.3}{\ignorespaces PWM - Tastgrad - Sinus\relax }}{26}{figure.caption.20}%
\contentsline {figure}{\numberline {6.4}{\ignorespaces Sinus nach Tabelle vom Python3 Script als Linie\relax }}{28}{figure.caption.22}%
\contentsline {figure}{\numberline {6.5}{\ignorespaces Sinus nach der Tabelle vom Python3 Script mit Stützpunkten\relax }}{28}{figure.caption.23}%
\addvspace {10\p@ }
\providecommand \tocbasic@end@toc@file {}\tocbasic@end@toc@file 
